…
We're going to need a few packages, so install them if you haven't yet: `Lahman`, `dplyr`, `magrittr`, `readr`, and `ggplot2`.

## Data collection and exploration

First, we need to get data about these baseball players. Luckily, a number of R packages collect data about MLB players and make it easily accessible.

We use a package [`openWARData`](https://github.com/beanumber/openWARData), used as inputs to the Open WAR standard as our source of WAR information. This package collects WAR information from the leading WAR implementations, FanGraphs and Baseball Reference.[^1] For this post, we will only consider Baseball Reference WAR calculations.



Using that data, we can take a quick look at the underlying data.


```
## # A tibble: 18,850 x 5
##     playerId start_year end_year years_played total_war
##        <chr>      <int>    <int>        <int>     <dbl>
## 1  aardsda01       2004     2015            9      1.87
## 2  aaronha01       1954     1976           23    142.57
## 3  aaronto01       1962     1971            7     -2.79
## 4   aasedo01       1977     1990           13     15.26
## 5   abadan01       2001     2006            3     -0.36
## 6   abadfe01       2010     2016            8      2.32
## 7  abadijo01       1875     1875            2     -0.06
## 8  abbated01       1897     1910           10      8.59
## 9  abbeybe01       1892     1896            6      0.12
## 10 abbeych01       1893     1897            5      1.69
## # ... with 18,840 more rows
```

There's only so much data that we need here, however. We can narrow this down to get player-year pairs of rWAR. That is, the rWAR achieved by each player in each year. We also limit our dataset to include players who first appeared in the majors after 1900 to limit old-timey outliers.


```
## # A tibble: 93,077 x 3
##     playerId yearId  rWAR
##        <chr>  <int> <dbl>
## 1  aardsda01   2004 -0.14
## 2  aardsda01   2006  0.59
## 3  aardsda01   2007 -0.39
## 4  aardsda01   2008 -0.32
## 5  aardsda01   2009  1.75
## 6  aardsda01   2010  0.71
## 7  aardsda01   2012 -0.02
## 8  aardsda01   2013 -0.12
## 9  aardsda01   2015 -0.19
## 10 aaronha01   1954  1.27
## # ... with 93,067 more rows
```
…
war_peak
```

```
## # A tibble: 16,648 x 2
##     playerId peak_war
##       <fctr>    <dbl>
## 1  aardsda01     2.20
## 2  aaronha01    58.85
## 3  aaronto01    19.25
## 4   aasedo01    12.96
## 5   abadan01     2.27
## 6   abadfe01     2.32
## 7  abbotfr01     3.02
## 8  abbotgl01     6.15
## 9  abbotje01     4.12
## 10 abbotji01    22.64
## # ... with 16,638 more rows
```
…
Now, we have two data frames with career WAR and peak WAR. We can merge them by joining on player ID to get the following output:


```
## # A tibble: 5,497 x 3
##     playerId total_war peak_war
##        <chr>     <dbl>    <dbl>
## 1  aardsda01      1.87     2.20
## 2  aaronha01    142.57    58.85
## 3  aaronto01     -2.79    19.25
## 4   aasedo01     15.26    12.96
## 5   abadfe01      2.32     2.32
## 6  abbotgl01      5.67     6.15
## 7  abbotji01     19.88    22.64
## 8  abbotku01      0.57     4.83
## 9  abbotpa01      4.72     6.94
## 10  aberal01      0.61     4.88
## # ... with 5,487 more rows
```

Then, calculating the JAWS index is easy:


```
## # A tibble: 5,497 x 4
##     playerId total_war peak_war    JAWS
##        <chr>     <dbl>    <dbl>   <dbl>
## 1  aardsda01      1.87     2.20   2.035
## 2  aaronha01    142.57    58.85 100.710
## 3  aaronto01     -2.79    19.25   8.230
## 4   aasedo01     15.26    12.96  14.110
## 5   abadfe01      2.32     2.32   2.320
## 6  abbotgl01      5.67     6.15   5.910
## 7  abbotji01     19.88    22.64  21.260
## 8  abbotku01      0.57     4.83   2.700
## 9  abbotpa01      4.72     6.94   5.830
## 10  aberal01      0.61     4.88   2.745
## # ... with 5,487 more rows
```
…
war_pos <- war_merge %>% 
  left_join(pos_data, by = c("playerId" = "playerID"))

war_pos
```

```
## # A tibble: 5,507 x 6
##     playerId total_war peak_war    JAWS   POS gp_pos
##        <chr>     <dbl>    <dbl>   <dbl> <chr>  <int>
## 1  aardsda01      1.87     2.20   2.035     P    298
## 2  aaronha01    142.57    58.85 100.710    OF   2760
## 3  aaronto01     -2.79    19.25   8.230    1B    232
## 4   aasedo01     15.26    12.96  14.110     P    448
## 5   abadfe01      2.32     2.32   2.320     P    196
## 6  abbotgl01      5.67     6.15   5.910     P    248
## 7  abbotji01     19.88    22.64  21.260     P    263
## 8  abbotku01      0.57     4.83   2.700    SS    349
## 9  abbotpa01      4.72     6.94   5.830     P    162
## 10  aberal01      0.61     4.88   2.745     P    168
## # ... with 5,497 more rows
```
…
